[2021-04-21 16:36:12.058] ,0.43,-5.20,.\2021_04_21_16_36_37\2021_04_21_16_36_38_268482.jpg
[2021-04-21 16:36:12.058] ,0.43,-5.20,.\2021_04_21_16_36_37\2021_04_21_16_36_38_341286.jpg
[2021-04-21 16:36:12.058] ,0.43,-5.20,.\2021_04_21_16_36_37\2021_04_21_16_36_38_536763.jpg
[2021-04-21 16:36:12.058] ,0.43,-5.20,.\2021_04_21_16_36_37\2021_04_21_16_36_38_737227.jpg
[2021-04-21 16:36:12.058] ,0.43,-5.20,.\2021_04_21_16_36_37\2021_04_21_16_36_38_938299.jpg
[2021-04-21 16:36:12.058] ,0.43,-5.20,.\2021_04_21_16_36_37\2021_04_21_16_36_39_144746.jpg
[2021-04-21 16:36:12.058] ,0.43,-5.20,.\2021_04_21_16_36_37\2021_04_21_16_36_39_345210.jpg
[2021-04-21 16:36:12.058] ,0.43,-5.20,.\2021_04_21_16_36_37\2021_04_21_16_36_39_547673.jpg
[2021-04-21 16:36:12.058] ,0.43,-5.20,.\2021_04_21_16_36_37\2021_04_21_16_36_39_748133.jpg
[2021-04-21 16:36:12.058] ,0.43,-5.20,.\2021_04_21_16_36_37\2021_04_21_16_36_39_950592.jpg
[2021-04-21 16:36:12.058] ,0.43,-5.20,.\2021_04_21_16_36_37\2021_04_21_16_36_40_151055.jpg
[2021-04-21 16:36:12.058] ,0.43,-5.20,.\2021_04_21_16_36_37\2021_04_21_16_36_40_353514.jpg
[2021-04-21 16:36:12.058] ,0.43,-5.20,.\2021_04_21_16_36_37\2021_04_21_16_36_40_553979.jpg
[2021-04-21 16:36:12.058] ,0.43,-5.20,.\2021_04_21_16_36_37\2021_04_21_16_36_40_753445.jpg
[2021-04-21 16:36:12.058] ,0.43,-5.20,.\2021_04_21_16_36_37\2021_04_21_16_36_40_955023.jpg
[2021-04-21 16:36:41.023] ,1.22,-5.40,.\2021_04_21_16_36_37\2021_04_21_16_36_41_155488.jpg
[2021-04-21 16:36:41.023] ,1.22,-5.40,.\2021_04_21_16_36_37\2021_04_21_16_36_41_356948.jpg
[2021-04-21 16:36:41.023] ,1.22,-5.40,.\2021_04_21_16_36_37\2021_04_21_16_36_41_556416.jpg
[2021-04-21 16:36:41.663] ,0.73,-5.60,.\2021_04_21_16_36_37\2021_04_21_16_36_41_757909.jpg
[2021-04-21 16:36:41.663] ,0.73,-5.60,.\2021_04_21_16_36_37\2021_04_21_16_36_41_959720.jpg
[2021-04-21 16:36:41.663] ,0.73,-5.60,.\2021_04_21_16_36_37\2021_04_21_16_36_42_159187.jpg
[2021-04-21 16:36:41.663] ,0.73,-5.60,.\2021_04_21_16_36_37\2021_04_21_16_36_42_360649.jpg
[2021-04-21 16:36:41.663] ,0.73,-5.60,.\2021_04_21_16_36_37\2021_04_21_16_36_42_561112.jpg
[2021-04-21 16:36:41.663] ,0.73,-5.60,.\2021_04_21_16_36_37\2021_04_21_16_36_42_762574.jpg
[2021-04-21 16:36:42.962] ,-0.95,-5.60,.\2021_04_21_16_36_37\2021_04_21_16_36_42_979655.jpg
[2021-04-21 16:36:42.962] ,-0.95,-5.60,.\2021_04_21_16_36_37\2021_04_21_16_36_43_168185.jpg
[2021-04-21 16:36:42.962] ,-0.95,-5.60,.\2021_04_21_16_36_37\2021_04_21_16_36_43_368615.jpg
[2021-04-21 16:36:42.962] ,-0.95,-5.60,.\2021_04_21_16_36_37\2021_04_21_16_36_43_571074.jpg
[2021-04-21 16:36:42.962] ,-0.95,-5.60,.\2021_04_21_16_36_37\2021_04_21_16_36_43_770540.jpg
[2021-04-21 16:36:43.867] ,-1.19,-5.60,.\2021_04_21_16_36_37\2021_04_21_16_36_43_972012.jpg
[2021-04-21 16:36:43.867] ,-1.19,-5.60,.\2021_04_21_16_36_37\2021_04_21_16_36_44_173022.jpg
[2021-04-21 16:36:43.867] ,-1.19,-5.60,.\2021_04_21_16_36_37\2021_04_21_16_36_44_373486.jpg
[2021-04-21 16:36:44.555] ,-0.36,-6.00,.\2021_04_21_16_36_37\2021_04_21_16_36_44_574948.jpg
[2021-04-21 16:36:44.612] ,-0.50,-5.80,.\2021_04_21_16_36_37\2021_04_21_16_36_44_777407.jpg
[2021-04-21 16:36:44.612] ,-0.50,-5.80,.\2021_04_21_16_36_37\2021_04_21_16_36_44_977871.jpg
[2021-04-21 16:36:44.612] ,-0.50,-5.80,.\2021_04_21_16_36_37\2021_04_21_16_36_45_178368.jpg
[2021-04-21 16:36:44.612] ,-0.50,-5.80,.\2021_04_21_16_36_37\2021_04_21_16_36_45_378832.jpg
[2021-04-21 16:36:45.423] ,-1.37,-6.00,.\2021_04_21_16_36_37\2021_04_21_16_36_45_581258.jpg
[2021-04-21 16:36:45.423] ,-1.37,-6.00,.\2021_04_21_16_36_37\2021_04_21_16_36_45_782721.jpg
[2021-04-21 16:36:45.423] ,-1.37,-6.00,.\2021_04_21_16_36_37\2021_04_21_16_36_45_982244.jpg
[2021-04-21 16:36:46.156] ,-1.81,-6.20,.\2021_04_21_16_36_37\2021_04_21_16_36_46_182708.jpg
[2021-04-21 16:36:46.226] ,-1.73,-6.00,.\2021_04_21_16_36_37\2021_04_21_16_36_46_385168.jpg
[2021-04-21 16:36:46.226] ,-1.73,-6.00,.\2021_04_21_16_36_37\2021_04_21_16_36_46_586629.jpg
[2021-04-21 16:36:46.226] ,-1.73,-6.00,.\2021_04_21_16_36_37\2021_04_21_16_36_46_786096.jpg
[2021-04-21 16:36:46.226] ,-1.73,-6.00,.\2021_04_21_16_36_37\2021_04_21_16_36_46_987958.jpg
[2021-04-21 16:36:46.226] ,-1.73,-6.00,.\2021_04_21_16_36_37\2021_04_21_16_36_47_188454.jpg
[2021-04-21 16:36:46.226] ,-1.73,-6.00,.\2021_04_21_16_36_37\2021_04_21_16_36_47_389883.jpg
[2021-04-21 16:36:47.512] ,-1.95,-6.20,.\2021_04_21_16_36_37\2021_04_21_16_36_47_590349.jpg
[2021-04-21 16:36:47.512] ,-1.95,-6.20,.\2021_04_21_16_36_37\2021_04_21_16_36_47_791811.jpg
[2021-04-21 16:36:47.512] ,-1.95,-6.20,.\2021_04_21_16_36_37\2021_04_21_16_36_47_994816.jpg
[2021-04-21 16:36:47.512] ,-1.95,-6.20,.\2021_04_21_16_36_37\2021_04_21_16_36_48_194311.jpg
[2021-04-21 16:36:48.307] ,-2.81,-6.40,.\2021_04_21_16_36_37\2021_04_21_16_36_48_394744.jpg
[2021-04-21 16:36:48.307] ,-2.81,-6.40,.\2021_04_21_16_36_37\2021_04_21_16_36_48_596205.jpg
[2021-04-21 16:36:48.307] ,-2.81,-6.40,.\2021_04_21_16_36_37\2021_04_21_16_36_48_796671.jpg
[2021-04-21 16:36:48.984] ,-4.72,-6.40,.\2021_04_21_16_36_37\2021_04_21_16_36_48_998984.jpg
[2021-04-21 16:36:48.984] ,-4.72,-6.40,.\2021_04_21_16_36_37\2021_04_21_16_36_49_198453.jpg
[2021-04-21 16:36:48.984] ,-4.72,-6.40,.\2021_04_21_16_36_37\2021_04_21_16_36_49_400967.jpg
[2021-04-21 16:36:49.557] ,-4.01,-6.60,.\2021_04_21_16_36_37\2021_04_21_16_36_49_601373.jpg
[2021-04-21 16:36:49.557] ,-4.01,-6.60,.\2021_04_21_16_36_37\2021_04_21_16_36_49_803832.jpg
[2021-04-21 16:36:49.557] ,-4.01,-6.60,.\2021_04_21_16_36_37\2021_04_21_16_36_50_004289.jpg
[2021-04-21 16:36:50.126] ,-5.65,-6.80,.\2021_04_21_16_36_37\2021_04_21_16_36_50_204786.jpg
[2021-04-21 16:36:50.126] ,-5.65,-6.80,.\2021_04_21_16_36_37\2021_04_21_16_36_50_406215.jpg
[2021-04-21 16:36:50.126] ,-5.65,-6.80,.\2021_04_21_16_36_37\2021_04_21_16_36_50_606681.jpg
[2021-04-21 16:36:50.126] ,-5.65,-6.80,.\2021_04_21_16_36_37\2021_04_21_16_36_50_808141.jpg
[2021-04-21 16:36:50.126] ,-5.65,-6.80,.\2021_04_21_16_36_37\2021_04_21_16_36_51_010439.jpg
[2021-04-21 16:36:51.143] ,-6.10,-7.00,.\2021_04_21_16_36_37\2021_04_21_16_36_51_210904.jpg
[2021-04-21 16:36:51.143] ,-6.10,-7.00,.\2021_04_21_16_36_37\2021_04_21_16_36_51_412366.jpg
[2021-04-21 16:36:51.143] ,-6.10,-7.00,.\2021_04_21_16_36_37\2021_04_21_16_36_51_616819.jpg
[2021-04-21 16:36:51.143] ,-6.10,-7.00,.\2021_04_21_16_36_37\2021_04_21_16_36_51_814322.jpg
[2021-04-21 16:36:51.143] ,-6.10,-7.00,.\2021_04_21_16_36_37\2021_04_21_16_36_52_016781.jpg
[2021-04-21 16:36:52.150] ,-7.81,-7.20,.\2021_04_21_16_36_37\2021_04_21_16_36_52_218243.jpg
[2021-04-21 16:36:52.150] ,-7.81,-7.20,.\2021_04_21_16_36_37\2021_04_21_16_36_52_418676.jpg
[2021-04-21 16:36:52.150] ,-7.81,-7.20,.\2021_04_21_16_36_37\2021_04_21_16_36_52_618173.jpg
[2021-04-21 16:36:52.150] ,-7.81,-7.20,.\2021_04_21_16_36_37\2021_04_21_16_36_52_820602.jpg
[2021-04-21 16:36:53.023] ,-8.74,-7.60,.\2021_04_21_16_36_37\2021_04_21_16_36_53_021065.jpg
[2021-04-21 16:36:53.096] ,-9.40,-7.40,.\2021_04_21_16_36_37\2021_04_21_16_36_53_222527.jpg
[2021-04-21 16:36:53.096] ,-9.40,-7.40,.\2021_04_21_16_36_37\2021_04_21_16_36_53_422990.jpg
[2021-04-21 16:36:53.096] ,-9.40,-7.40,.\2021_04_21_16_36_37\2021_04_21_16_36_53_623033.jpg
[2021-04-21 16:36:53.661] ,-10.96,-7.60,.\2021_04_21_16_36_37\2021_04_21_16_36_53_824494.jpg
[2021-04-21 16:36:53.661] ,-10.96,-7.60,.\2021_04_21_16_36_37\2021_04_21_16_36_54_025955.jpg
[2021-04-21 16:36:53.661] ,-10.96,-7.60,.\2021_04_21_16_36_37\2021_04_21_16_36_54_227454.jpg
[2021-04-21 16:36:54.403] ,-12.83,-7.80,.\2021_04_21_16_36_37\2021_04_21_16_36_54_428877.jpg
[2021-04-21 16:36:54.403] ,-12.83,-7.80,.\2021_04_21_16_36_37\2021_04_21_16_36_54_630340.jpg
[2021-04-21 16:36:54.403] ,-12.83,-7.80,.\2021_04_21_16_36_37\2021_04_21_16_36_54_830803.jpg
[2021-04-21 16:36:54.403] ,-12.83,-7.80,.\2021_04_21_16_36_37\2021_04_21_16_36_55_030270.jpg
[2021-04-21 16:36:54.403] ,-12.83,-7.80,.\2021_04_21_16_36_37\2021_04_21_16_36_55_231734.jpg
[2021-04-21 16:36:54.403] ,-12.83,-7.80,.\2021_04_21_16_36_37\2021_04_21_16_36_55_436186.jpg
[2021-04-21 16:36:55.608] ,-13.75,-8.00,.\2021_04_21_16_36_37\2021_04_21_16_36_55_636649.jpg
[2021-04-21 16:36:55.608] ,-13.75,-8.00,.\2021_04_21_16_36_37\2021_04_21_16_36_55_838203.jpg
[2021-04-21 16:36:55.608] ,-13.75,-8.00,.\2021_04_21_16_36_37\2021_04_21_16_36_56_040687.jpg
[2021-04-21 16:36:56.182] ,-15.38,-8.20,.\2021_04_21_16_36_37\2021_04_21_16_36_56_241121.jpg
[2021-04-21 16:36:56.328] ,-15.65,-8.20,.\2021_04_21_16_36_37\2021_04_21_16_36_56_442611.jpg
[2021-04-21 16:36:56.328] ,-15.65,-8.20,.\2021_04_21_16_36_37\2021_04_21_16_36_56_643091.jpg
[2021-04-21 16:36:56.825] ,-17.91,-8.40,.\2021_04_21_16_36_37\2021_04_21_16_36_56_844507.jpg
[2021-04-21 16:36:56.825] ,-17.91,-8.40,.\2021_04_21_16_36_37\2021_04_21_16_36_57_045457.jpg
[2021-04-21 16:36:56.825] ,-17.91,-8.40,.\2021_04_21_16_36_37\2021_04_21_16_36_57_246926.jpg
[2021-04-21 16:36:56.825] ,-17.91,-8.40,.\2021_04_21_16_36_37\2021_04_21_16_36_57_448379.jpg
[2021-04-21 16:36:56.825] ,-17.91,-8.40,.\2021_04_21_16_36_37\2021_04_21_16_36_57_648844.jpg
[2021-04-21 16:36:56.825] ,-17.91,-8.40,.\2021_04_21_16_36_37\2021_04_21_16_36_57_849308.jpg
[2021-04-21 16:36:58.016] ,-19.46,-8.40,.\2021_04_21_16_36_37\2021_04_21_16_36_58_050768.jpg
[2021-04-21 16:36:58.016] ,-19.46,-8.40,.\2021_04_21_16_36_37\2021_04_21_16_36_58_252231.jpg
[2021-04-21 16:36:58.016] ,-19.46,-8.40,.\2021_04_21_16_36_37\2021_04_21_16_36_58_452696.jpg
[2021-04-21 16:36:58.517] ,-19.87,-8.60,.\2021_04_21_16_36_37\2021_04_21_16_36_58_654155.jpg
[2021-04-21 16:36:58.517] ,-19.87,-8.60,.\2021_04_21_16_36_37\2021_04_21_16_36_58_856615.jpg
[2021-04-21 16:36:58.972] ,-21.01,-8.80,.\2021_04_21_16_36_37\2021_04_21_16_36_59_057080.jpg
[2021-04-21 16:36:58.972] ,-21.01,-8.80,.\2021_04_21_16_36_37\2021_04_21_16_36_59_257543.jpg
[2021-04-21 16:36:58.972] ,-21.01,-8.80,.\2021_04_21_16_36_37\2021_04_21_16_36_59_459035.jpg
[2021-04-21 16:36:59.586] ,-21.75,-9.00,.\2021_04_21_16_36_37\2021_04_21_16_36_59_659499.jpg
[2021-04-21 16:36:59.586] ,-21.75,-9.00,.\2021_04_21_16_36_37\2021_04_21_16_36_59_859933.jpg
[2021-04-21 16:37:00.013] ,-22.37,-9.20,.\2021_04_21_16_36_37\2021_04_21_16_37_00_061425.jpg
[2021-04-21 16:37:00.013] ,-22.37,-9.20,.\2021_04_21_16_36_37\2021_04_21_16_37_00_262855.jpg
[2021-04-21 16:37:00.013] ,-22.37,-9.20,.\2021_04_21_16_36_37\2021_04_21_16_37_00_463351.jpg
[2021-04-21 16:37:00.013] ,-22.37,-9.20,.\2021_04_21_16_36_37\2021_04_21_16_37_00_665777.jpg
[2021-04-21 16:37:00.827] ,-24.22,-9.20,.\2021_04_21_16_36_37\2021_04_21_16_37_00_866749.jpg
[2021-04-21 16:37:00.926] ,-24.54,-9.40,.\2021_04_21_16_36_37\2021_04_21_16_37_01_068209.jpg
[2021-04-21 16:37:00.926] ,-24.54,-9.40,.\2021_04_21_16_36_37\2021_04_21_16_37_01_268673.jpg
[2021-04-21 16:37:00.926] ,-24.54,-9.40,.\2021_04_21_16_36_37\2021_04_21_16_37_01_470135.jpg
[2021-04-21 16:37:01.585] ,-25.22,-9.60,.\2021_04_21_16_36_37\2021_04_21_16_37_01_670600.jpg
[2021-04-21 16:37:01.585] ,-25.22,-9.60,.\2021_04_21_16_36_37\2021_04_21_16_37_01_873089.jpg
[2021-04-21 16:37:01.970] ,-26.76,-9.40,.\2021_04_21_16_36_37\2021_04_21_16_37_02_072556.jpg
[2021-04-21 16:37:01.970] ,-26.76,-9.40,.\2021_04_21_16_36_37\2021_04_21_16_37_02_273024.jpg
[2021-04-21 16:37:01.970] ,-26.76,-9.40,.\2021_04_21_16_36_37\2021_04_21_16_37_02_475447.jpg
[2021-04-21 16:37:01.970] ,-26.76,-9.40,.\2021_04_21_16_36_37\2021_04_21_16_37_02_675912.jpg
[2021-04-21 16:37:01.970] ,-26.76,-9.40,.\2021_04_21_16_36_37\2021_04_21_16_37_02_876376.jpg
[2021-04-21 16:37:03.027] ,-25.01,-9.60,.\2021_04_21_16_36_37\2021_04_21_16_37_03_078866.jpg
[2021-04-21 16:37:03.027] ,-25.01,-9.60,.\2021_04_21_16_36_37\2021_04_21_16_37_03_278302.jpg
[2021-04-21 16:37:03.027] ,-25.01,-9.60,.\2021_04_21_16_36_37\2021_04_21_16_37_03_479763.jpg
[2021-04-21 16:37:03.027] ,-25.01,-9.60,.\2021_04_21_16_36_37\2021_04_21_16_37_03_680302.jpg
[2021-04-21 16:37:03.891] ,-26.06,-9.80,.\2021_04_21_16_36_37\2021_04_21_16_37_03_882686.jpg
[2021-04-21 16:37:03.891] ,-26.06,-9.80,.\2021_04_21_16_36_37\2021_04_21_16_37_04_083150.jpg
[2021-04-21 16:37:03.891] ,-26.06,-9.80,.\2021_04_21_16_36_37\2021_04_21_16_37_04_283615.jpg
[2021-04-21 16:37:03.891] ,-26.06,-9.80,.\2021_04_21_16_36_37\2021_04_21_16_37_04_485076.jpg
[2021-04-21 16:37:04.600] ,-26.45,-10.00,.\2021_04_21_16_36_37\2021_04_21_16_37_04_687534.jpg
[2021-04-21 16:37:04.600] ,-26.45,-10.00,.\2021_04_21_16_36_37\2021_04_21_16_37_04_887001.jpg
[2021-04-21 16:37:04.600] ,-26.45,-10.00,.\2021_04_21_16_36_37\2021_04_21_16_37_05_087806.jpg
[2021-04-21 16:37:05.301] ,-28.26,-10.20,.\2021_04_21_16_36_37\2021_04_21_16_37_05_290267.jpg
[2021-04-21 16:37:05.301] ,-28.26,-10.20,.\2021_04_21_16_36_37\2021_04_21_16_37_05_493756.jpg
[2021-04-21 16:37:05.301] ,-28.26,-10.20,.\2021_04_21_16_36_37\2021_04_21_16_37_05_694704.jpg
[2021-04-21 16:37:05.301] ,-28.26,-10.20,.\2021_04_21_16_36_37\2021_04_21_16_37_05_895168.jpg
[2021-04-21 16:37:05.945] ,-29.88,-10.40,.\2021_04_21_16_36_37\2021_04_21_16_37_06_095634.jpg
[2021-04-21 16:37:05.945] ,-29.88,-10.40,.\2021_04_21_16_36_37\2021_04_21_16_37_06_297096.jpg
[2021-04-21 16:37:05.945] ,-29.88,-10.40,.\2021_04_21_16_36_37\2021_04_21_16_37_06_499553.jpg
[2021-04-21 16:37:06.694] ,-30.51,-10.40,.\2021_04_21_16_36_37\2021_04_21_16_37_06_701014.jpg
[2021-04-21 16:37:06.694] ,-30.51,-10.40,.\2021_04_21_16_36_37\2021_04_21_16_37_06_902476.jpg
[2021-04-21 16:37:06.694] ,-30.51,-10.40,.\2021_04_21_16_36_37\2021_04_21_16_37_07_103938.jpg
[2021-04-21 16:37:06.694] ,-30.51,-10.40,.\2021_04_21_16_36_37\2021_04_21_16_37_07_304401.jpg
[2021-04-21 16:37:06.694] ,-30.51,-10.40,.\2021_04_21_16_36_37\2021_04_21_16_37_07_505918.jpg
[2021-04-21 16:37:06.694] ,-30.51,-10.40,.\2021_04_21_16_36_37\2021_04_21_16_37_07_707380.jpg
[2021-04-21 16:37:07.731] ,-30.94,-10.60,.\2021_04_21_16_36_37\2021_04_21_16_37_07_907842.jpg
[2021-04-21 16:37:07.731] ,-30.94,-10.60,.\2021_04_21_16_36_37\2021_04_21_16_37_08_108629.jpg
[2021-04-21 16:37:07.731] ,-30.94,-10.60,.\2021_04_21_16_36_37\2021_04_21_16_37_08_310089.jpg
[2021-04-21 16:37:08.389] ,-32.14,-10.80,.\2021_04_21_16_36_37\2021_04_21_16_37_08_510586.jpg
[2021-04-21 16:37:08.389] ,-32.14,-10.80,.\2021_04_21_16_36_37\2021_04_21_16_37_08_717033.jpg
[2021-04-21 16:37:08.389] ,-32.14,-10.80,.\2021_04_21_16_36_37\2021_04_21_16_37_08_917467.jpg
[2021-04-21 16:37:08.389] ,-32.14,-10.80,.\2021_04_21_16_36_37\2021_04_21_16_37_09_120368.jpg
[2021-04-21 16:37:08.389] ,-32.14,-10.80,.\2021_04_21_16_36_37\2021_04_21_16_37_09_320836.jpg
[2021-04-21 16:37:08.389] ,-32.14,-10.80,.\2021_04_21_16_36_37\2021_04_21_16_37_09_522714.jpg
[2021-04-21 16:37:09.693] ,-33.74,-10.80,.\2021_04_21_16_36_37\2021_04_21_16_37_09_723179.jpg
[2021-04-21 16:37:09.693] ,-33.74,-10.80,.\2021_04_21_16_36_37\2021_04_21_16_37_09_924641.jpg
[2021-04-21 16:37:09.693] ,-33.74,-10.80,.\2021_04_21_16_36_37\2021_04_21_16_37_10_125384.jpg
[2021-04-21 16:37:10.307] ,-34.08,-11.00,.\2021_04_21_16_36_37\2021_04_21_16_37_10_325845.jpg
[2021-04-21 16:37:10.307] ,-34.08,-11.00,.\2021_04_21_16_36_37\2021_04_21_16_37_10_526308.jpg
[2021-04-21 16:37:10.307] ,-34.08,-11.00,.\2021_04_21_16_36_37\2021_04_21_16_37_10_726773.jpg
[2021-04-21 16:37:10.307] ,-34.08,-11.00,.\2021_04_21_16_36_37\2021_04_21_16_37_10_929236.jpg
[2021-04-21 16:37:11.160] ,-36.03,-11.00,.\2021_04_21_16_36_37\2021_04_21_16_37_11_335149.jpg
[2021-04-21 16:37:11.160] ,-36.03,-11.00,.\2021_04_21_16_36_37\2021_04_21_16_37_11_536940.jpg
[2021-04-21 16:37:11.160] ,-36.03,-11.00,.\2021_04_21_16_36_37\2021_04_21_16_37_11_737402.jpg
[2021-04-21 16:37:11.803] ,-37.13,-11.20,.\2021_04_21_16_36_37\2021_04_21_16_37_11_938862.jpg
[2021-04-21 16:37:11.803] ,-37.13,-11.20,.\2021_04_21_16_36_37\2021_04_21_16_37_12_139359.jpg
[2021-04-21 16:37:11.803] ,-37.13,-11.20,.\2021_04_21_16_36_37\2021_04_21_16_37_12_340825.jpg
[2021-04-21 16:37:11.803] ,-37.13,-11.20,.\2021_04_21_16_36_37\2021_04_21_16_37_12_541157.jpg
[2021-04-21 16:37:12.720] ,-39.02,-11.20,.\2021_04_21_16_36_37\2021_04_21_16_37_12_741621.jpg
[2021-04-21 16:37:12.720] ,-39.02,-11.20,.\2021_04_21_16_36_37\2021_04_21_16_37_12_944079.jpg
[2021-04-21 16:37:12.720] ,-39.02,-11.20,.\2021_04_21_16_36_37\2021_04_21_16_37_13_145085.jpg
[2021-04-21 16:37:12.720] ,-39.02,-11.20,.\2021_04_21_16_36_37\2021_04_21_16_37_13_346513.jpg
[2021-04-21 16:37:12.720] ,-39.02,-11.20,.\2021_04_21_16_36_37\2021_04_21_16_37_13_545980.jpg
[2021-04-21 16:37:13.654] ,-38.12,-11.40,.\2021_04_21_16_36_37\2021_04_21_16_37_13_747495.jpg
[2021-04-21 16:37:13.654] ,-38.12,-11.40,.\2021_04_21_16_36_37\2021_04_21_16_37_13_947931.jpg
[2021-04-21 16:37:13.654] ,-38.12,-11.40,.\2021_04_21_16_36_37\2021_04_21_16_37_14_148398.jpg
[2021-04-21 16:37:13.654] ,-38.12,-11.40,.\2021_04_21_16_36_37\2021_04_21_16_37_14_350853.jpg
[2021-04-21 16:37:14.474] ,-39.74,-11.60,.\2021_04_21_16_36_37\2021_04_21_16_37_14_551320.jpg
[2021-04-21 16:37:14.474] ,-39.74,-11.60,.\2021_04_21_16_36_37\2021_04_21_16_37_14_752812.jpg
[2021-04-21 16:37:14.474] ,-39.74,-11.60,.\2021_04_21_16_36_37\2021_04_21_16_37_14_954757.jpg
[2021-04-21 16:37:14.474] ,-39.74,-11.60,.\2021_04_21_16_36_37\2021_04_21_16_37_15_155221.jpg
[2021-04-21 16:37:14.474] ,-39.74,-11.60,.\2021_04_21_16_36_37\2021_04_21_16_37_15_357678.jpg
[2021-04-21 16:37:14.474] ,-39.74,-11.60,.\2021_04_21_16_36_37\2021_04_21_16_37_15_557687.jpg
[2021-04-21 16:37:15.752] ,-41.13,-11.80,.\2021_04_21_16_36_37\2021_04_21_16_37_15_760144.jpg
[2021-04-21 16:37:15.752] ,-41.13,-11.80,.\2021_04_21_16_36_37\2021_04_21_16_37_15_959581.jpg
[2021-04-21 16:37:15.752] ,-41.13,-11.80,.\2021_04_21_16_36_37\2021_04_21_16_37_16_161043.jpg
[2021-04-21 16:37:15.752] ,-41.13,-11.80,.\2021_04_21_16_36_37\2021_04_21_16_37_16_362505.jpg
[2021-04-21 16:37:16.395] ,-42.96,-12.00,.\2021_04_21_16_36_37\2021_04_21_16_37_16_563964.jpg
[2021-04-21 16:37:16.395] ,-42.96,-12.00,.\2021_04_21_16_36_37\2021_04_21_16_37_16_763963.jpg
[2021-04-21 16:37:16.395] ,-42.96,-12.00,.\2021_04_21_16_36_37\2021_04_21_16_37_16_967422.jpg
[2021-04-21 16:37:16.395] ,-42.96,-12.00,.\2021_04_21_16_36_37\2021_04_21_16_37_17_168882.jpg
[2021-04-21 16:37:17.358] ,-43.32,-12.00,.\2021_04_21_16_36_37\2021_04_21_16_37_17_369346.jpg
[2021-04-21 16:37:17.358] ,-43.32,-12.00,.\2021_04_21_16_36_37\2021_04_21_16_37_17_570171.jpg
[2021-04-21 16:37:17.358] ,-43.32,-12.00,.\2021_04_21_16_36_37\2021_04_21_16_37_17_771632.jpg
[2021-04-21 16:37:17.932] ,-42.01,-12.20,.\2021_04_21_16_36_37\2021_04_21_16_37_17_971100.jpg
[2021-04-21 16:37:17.932] ,-42.01,-12.20,.\2021_04_21_16_36_37\2021_04_21_16_37_18_172593.jpg
[2021-04-21 16:37:18.366] ,-43.25,-12.40,.\2021_04_21_16_36_37\2021_04_21_16_37_18_374023.jpg
[2021-04-21 16:37:18.423] ,-43.22,-12.20,.\2021_04_21_16_36_37\2021_04_21_16_37_18_574486.jpg
[2021-04-21 16:37:18.423] ,-43.22,-12.20,.\2021_04_21_16_36_37\2021_04_21_16_37_18_774982.jpg
[2021-04-21 16:37:18.423] ,-43.22,-12.20,.\2021_04_21_16_36_37\2021_04_21_16_37_18_975415.jpg
[2021-04-21 16:37:18.423] ,-43.22,-12.20,.\2021_04_21_16_36_37\2021_04_21_16_37_19_176877.jpg
[2021-04-21 16:37:18.423] ,-43.22,-12.20,.\2021_04_21_16_36_37\2021_04_21_16_37_19_379336.jpg
[2021-04-21 16:37:19.501] ,-42.46,-12.20,.\2021_04_21_16_36_37\2021_04_21_16_37_19_579835.jpg
[2021-04-21 16:37:19.501] ,-42.46,-12.20,.\2021_04_21_16_36_37\2021_04_21_16_37_19_779462.jpg
[2021-04-21 16:37:19.501] ,-42.46,-12.20,.\2021_04_21_16_36_37\2021_04_21_16_37_19_980434.jpg
[2021-04-21 16:37:20.147] ,-42.27,-12.40,.\2021_04_21_16_36_37\2021_04_21_16_37_20_182892.jpg
[2021-04-21 16:37:20.147] ,-42.27,-12.40,.\2021_04_21_16_36_37\2021_04_21_16_37_20_383358.jpg
[2021-04-21 16:37:20.147] ,-42.27,-12.40,.\2021_04_21_16_36_37\2021_04_21_16_37_20_586320.jpg
[2021-04-21 16:37:20.660] ,-43.54,-12.60,.\2021_04_21_16_36_37\2021_04_21_16_37_20_786786.jpg
[2021-04-21 16:37:20.660] ,-43.54,-12.60,.\2021_04_21_16_36_37\2021_04_21_16_37_20_987248.jpg
[2021-04-21 16:37:20.660] ,-43.54,-12.60,.\2021_04_21_16_36_37\2021_04_21_16_37_21_189739.jpg
[2021-04-21 16:37:20.660] ,-43.54,-12.60,.\2021_04_21_16_36_37\2021_04_21_16_37_21_390170.jpg
[2021-04-21 16:37:21.512] ,-44.69,-12.80,.\2021_04_21_16_36_37\2021_04_21_16_37_21_592633.jpg
[2021-04-21 16:37:21.512] ,-44.69,-12.80,.\2021_04_21_16_36_37\2021_04_21_16_37_21_795034.jpg
[2021-04-21 16:37:21.512] ,-44.69,-12.80,.\2021_04_21_16_36_37\2021_04_21_16_37_21_995529.jpg
[2021-04-21 16:37:21.512] ,-44.69,-12.80,.\2021_04_21_16_36_37\2021_04_21_16_37_22_196959.jpg
[2021-04-21 16:37:22.369] ,-45.04,-13.00,.\2021_04_21_16_36_37\2021_04_21_16_37_22_397962.jpg
[2021-04-21 16:37:22.369] ,-45.04,-13.00,.\2021_04_21_16_36_37\2021_04_21_16_37_22_598396.jpg
[2021-04-21 16:37:22.369] ,-45.04,-13.00,.\2021_04_21_16_36_37\2021_04_21_16_37_22_798860.jpg
[2021-04-21 16:37:22.369] ,-45.04,-13.00,.\2021_04_21_16_36_37\2021_04_21_16_37_22_999899.jpg
[2021-04-21 16:37:23.163] ,-46.99,-13.20,.\2021_04_21_16_36_37\2021_04_21_16_37_23_201391.jpg
[2021-04-21 16:37:23.388] ,-47.37,-13.40,.\2021_04_21_16_36_37\2021_04_21_16_37_23_402821.jpg
[2021-04-21 16:37:23.388] ,-47.37,-13.40,.\2021_04_21_16_36_37\2021_04_21_16_37_23_602287.jpg
[2021-04-21 16:37:23.388] ,-47.37,-13.40,.\2021_04_21_16_36_37\2021_04_21_16_37_23_803749.jpg
[2021-04-21 16:37:23.971] ,-49.77,-13.60,.\2021_04_21_16_36_37\2021_04_21_16_37_24_005213.jpg
[2021-04-21 16:37:24.066] ,-49.91,-13.40,.\2021_04_21_16_36_37\2021_04_21_16_37_24_207669.jpg
[2021-04-21 16:37:24.066] ,-49.91,-13.40,.\2021_04_21_16_36_37\2021_04_21_16_37_24_407136.jpg
[2021-04-21 16:37:24.066] ,-49.91,-13.40,.\2021_04_21_16_36_37\2021_04_21_16_37_24_607600.jpg
[2021-04-21 16:37:24.708] ,-50.25,-13.60,.\2021_04_21_16_36_37\2021_04_21_16_37_24_810730.jpg
[2021-04-21 16:37:24.708] ,-50.25,-13.60,.\2021_04_21_16_36_37\2021_04_21_16_37_25_011803.jpg
[2021-04-21 16:37:24.708] ,-50.25,-13.60,.\2021_04_21_16_36_37\2021_04_21_16_37_25_212265.jpg
[2021-04-21 16:37:25.371] ,-51.56,-13.60,.\2021_04_21_16_36_37\2021_04_21_16_37_25_412730.jpg
[2021-04-21 16:37:25.371] ,-51.56,-13.60,.\2021_04_21_16_36_37\2021_04_21_16_37_25_613194.jpg
[2021-04-21 16:37:25.371] ,-51.56,-13.60,.\2021_04_21_16_36_37\2021_04_21_16_37_25_814656.jpg
[2021-04-21 16:37:25.371] ,-51.56,-13.60,.\2021_04_21_16_36_37\2021_04_21_16_37_26_016116.jpg
[2021-04-21 16:37:26.162] ,-51.31,-13.80,.\2021_04_21_16_36_37\2021_04_21_16_37_26_215620.jpg
[2021-04-21 16:37:26.162] ,-51.31,-13.80,.\2021_04_21_16_36_37\2021_04_21_16_37_26_416079.jpg
[2021-04-21 16:37:26.162] ,-51.31,-13.80,.\2021_04_21_16_36_37\2021_04_21_16_37_26_618506.jpg
[2021-04-21 16:37:26.162] ,-51.31,-13.80,.\2021_04_21_16_36_37\2021_04_21_16_37_26_818385.jpg
[2021-04-21 16:37:26.981] ,-52.55,-14.00,.\2021_04_21_16_36_37\2021_04_21_16_37_27_019846.jpg
[2021-04-21 16:37:27.117] ,-52.47,-14.20,.\2021_04_21_16_36_37\2021_04_21_16_37_27_221309.jpg
[2021-04-21 16:37:27.117] ,-52.47,-14.20,.\2021_04_21_16_36_37\2021_04_21_16_37_27_421779.jpg
[2021-04-21 16:37:27.564] ,-56.17,-14.00,.\2021_04_21_16_36_37\2021_04_21_16_37_27_624236.jpg
[2021-04-21 16:37:27.564] ,-56.17,-14.00,.\2021_04_21_16_36_37\2021_04_21_16_37_27_825239.jpg
[2021-04-21 16:37:27.564] ,-56.17,-14.00,.\2021_04_21_16_36_37\2021_04_21_16_37_28_026671.jpg
[2021-04-21 16:37:27.564] ,-56.17,-14.00,.\2021_04_21_16_36_37\2021_04_21_16_37_28_228131.jpg
[2021-04-21 16:37:28.284] ,-54.59,-14.20,.\2021_04_21_16_36_37\2021_04_21_16_37_28_429629.jpg
[2021-04-21 16:37:28.284] ,-54.59,-14.20,.\2021_04_21_16_36_37\2021_04_21_16_37_28_630056.jpg
[2021-04-21 16:37:28.747] ,-56.61,-14.00,.\2021_04_21_16_36_37\2021_04_21_16_37_28_832244.jpg
[2021-04-21 16:37:28.747] ,-56.61,-14.00,.\2021_04_21_16_36_37\2021_04_21_16_37_29_031711.jpg
[2021-04-21 16:37:28.747] ,-56.61,-14.00,.\2021_04_21_16_36_37\2021_04_21_16_37_29_233174.jpg
[2021-04-21 16:37:28.747] ,-56.61,-14.00,.\2021_04_21_16_36_37\2021_04_21_16_37_29_433673.jpg
[2021-04-21 16:37:28.747] ,-56.61,-14.00,.\2021_04_21_16_36_37\2021_04_21_16_37_29_636127.jpg
[2021-04-21 16:37:29.767] ,-54.49,-14.20,.\2021_04_21_16_36_37\2021_04_21_16_37_29_836559.jpg
[2021-04-21 16:37:29.767] ,-54.49,-14.20,.\2021_04_21_16_36_37\2021_04_21_16_37_30_036828.jpg
[2021-04-21 16:37:30.066] ,-56.04,-14.40,.\2021_04_21_16_36_37\2021_04_21_16_37_30_237806.jpg
[2021-04-21 16:37:30.066] ,-56.04,-14.40,.\2021_04_21_16_36_37\2021_04_21_16_37_30_439269.jpg
[2021-04-21 16:37:30.493] ,-58.06,-14.20,.\2021_04_21_16_36_37\2021_04_21_16_37_30_641725.jpg
[2021-04-21 16:37:30.493] ,-58.06,-14.20,.\2021_04_21_16_36_37\2021_04_21_16_37_30_843012.jpg
[2021-04-21 16:37:30.968] ,-57.30,-14.40,.\2021_04_21_16_36_37\2021_04_21_16_37_31_043507.jpg
[2021-04-21 16:37:30.968] ,-57.30,-14.40,.\2021_04_21_16_36_37\2021_04_21_16_37_31_244937.jpg
[2021-04-21 16:37:30.968] ,-57.30,-14.40,.\2021_04_21_16_36_37\2021_04_21_16_37_31_445434.jpg
[2021-04-21 16:37:31.615] ,-59.19,-14.60,.\2021_04_21_16_36_37\2021_04_21_16_37_31_646862.jpg
[2021-04-21 16:37:31.803] ,-59.38,-14.60,.\2021_04_21_16_36_37\2021_04_21_16_37_31_847701.jpg
[2021-04-21 16:37:31.803] ,-59.38,-14.60,.\2021_04_21_16_36_37\2021_04_21_16_37_32_049164.jpg
[2021-04-21 16:37:31.803] ,-59.38,-14.60,.\2021_04_21_16_36_37\2021_04_21_16_37_32_249626.jpg
[2021-04-21 16:37:31.803] ,-59.38,-14.60,.\2021_04_21_16_36_37\2021_04_21_16_37_32_450092.jpg
[2021-04-21 16:37:32.574] ,-59.59,-14.80,.\2021_04_21_16_36_37\2021_04_21_16_37_32_651064.jpg
[2021-04-21 16:37:32.574] ,-59.59,-14.80,.\2021_04_21_16_36_37\2021_04_21_16_37_32_853524.jpg
[2021-04-21 16:37:32.574] ,-59.59,-14.80,.\2021_04_21_16_36_37\2021_04_21_16_37_33_054019.jpg
[2021-04-21 16:37:33.356] ,-60.00,-14.80,.\2021_04_21_16_36_37\2021_04_21_16_37_33_455944.jpg
[2021-04-21 16:37:33.356] ,-60.00,-14.80,.\2021_04_21_16_36_37\2021_04_21_16_37_33_656377.jpg
[2021-04-21 16:37:33.356] ,-60.00,-14.80,.\2021_04_21_16_36_37\2021_04_21_16_37_33_861827.jpg
[2021-04-21 16:37:33.356] ,-60.00,-14.80,.\2021_04_21_16_36_37\2021_04_21_16_37_34_058301.jpg
[2021-04-21 16:37:34.094] ,-61.05,-15.00,.\2021_04_21_16_36_37\2021_04_21_16_37_34_258766.jpg
[2021-04-21 16:37:34.094] ,-61.05,-15.00,.\2021_04_21_16_36_37\2021_04_21_16_37_34_460228.jpg
[2021-04-21 16:37:34.094] ,-61.05,-15.00,.\2021_04_21_16_36_37\2021_04_21_16_37_34_660331.jpg
[2021-04-21 16:37:34.831] ,-62.33,-15.00,.\2021_04_21_16_36_37\2021_04_21_16_37_34_862787.jpg
[2021-04-21 16:37:34.831] ,-62.33,-15.00,.\2021_04_21_16_36_37\2021_04_21_16_37_35_063281.jpg
[2021-04-21 16:37:34.831] ,-62.33,-15.00,.\2021_04_21_16_36_37\2021_04_21_16_37_35_264283.jpg
[2021-04-21 16:37:34.831] ,-62.33,-15.00,.\2021_04_21_16_36_37\2021_04_21_16_37_35_463718.jpg
[2021-04-21 16:37:34.831] ,-62.33,-15.00,.\2021_04_21_16_36_37\2021_04_21_16_37_35_666180.jpg
[2021-04-21 16:37:35.725] ,-62.66,-15.20,.\2021_04_21_16_36_37\2021_04_21_16_37_35_867646.jpg
[2021-04-21 16:37:35.725] ,-62.66,-15.20,.\2021_04_21_16_36_37\2021_04_21_16_37_36_067106.jpg
[2021-04-21 16:37:35.725] ,-62.66,-15.20,.\2021_04_21_16_36_37\2021_04_21_16_37_36_267602.jpg
[2021-04-21 16:37:35.725] ,-62.66,-15.20,.\2021_04_21_16_36_37\2021_04_21_16_37_36_470061.jpg
[2021-04-21 16:37:36.633] ,-63.70,-15.20,.\2021_04_21_16_36_37\2021_04_21_16_37_36_670494.jpg
[2021-04-21 16:37:36.633] ,-63.70,-15.20,.\2021_04_21_16_36_37\2021_04_21_16_37_36_871955.jpg
[2021-04-21 16:37:36.633] ,-63.70,-15.20,.\2021_04_21_16_36_37\2021_04_21_16_37_37_072957.jpg
[2021-04-21 16:37:36.633] ,-63.70,-15.20,.\2021_04_21_16_36_37\2021_04_21_16_37_37_274574.jpg
[2021-04-21 16:37:36.633] ,-63.70,-15.20,.\2021_04_21_16_36_37\2021_04_21_16_37_37_476067.jpg
[2021-04-21 16:37:36.633] ,-63.70,-15.20,.\2021_04_21_16_36_37\2021_04_21_16_37_37_676532.jpg
[2021-04-21 16:37:37.874] ,-62.48,-15.20,.\2021_04_21_16_36_37\2021_04_21_16_37_37_876963.jpg
[2021-04-21 16:37:37.874] ,-62.48,-15.20,.\2021_04_21_16_36_37\2021_04_21_16_37_38_078425.jpg
[2021-04-21 16:37:37.874] ,-62.48,-15.20,.\2021_04_21_16_36_37\2021_04_21_16_37_38_279888.jpg
[2021-04-21 16:37:37.874] ,-62.48,-15.20,.\2021_04_21_16_36_37\2021_04_21_16_37_38_480350.jpg
[2021-04-21 16:37:37.874] ,-62.48,-15.20,.\2021_04_21_16_36_37\2021_04_21_16_37_38_681813.jpg
[2021-04-21 16:37:37.874] ,-62.48,-15.20,.\2021_04_21_16_36_37\2021_04_21_16_37_38_882815.jpg
[2021-04-21 16:37:38.903] ,-61.63,-15.40,.\2021_04_21_16_36_37\2021_04_21_16_37_39_084307.jpg
[2021-04-21 16:37:38.903] ,-61.63,-15.40,.\2021_04_21_16_36_37\2021_04_21_16_37_39_284741.jpg
[2021-04-21 16:37:38.903] ,-61.63,-15.40,.\2021_04_21_16_36_37\2021_04_21_16_37_39_485207.jpg
[2021-04-21 16:37:38.903] ,-61.63,-15.40,.\2021_04_21_16_36_37\2021_04_21_16_37_39_684705.jpg
[2021-04-21 16:37:38.903] ,-61.63,-15.40,.\2021_04_21_16_36_37\2021_04_21_16_37_39_886167.jpg
[2021-04-21 16:37:39.940] ,-62.75,-15.60,.\2021_04_21_16_36_37\2021_04_21_16_37_40_087177.jpg
[2021-04-21 16:37:39.940] ,-62.75,-15.60,.\2021_04_21_16_36_37\2021_04_21_16_37_40_288148.jpg
[2021-04-21 16:37:39.940] ,-62.75,-15.60,.\2021_04_21_16_36_37\2021_04_21_16_37_40_489611.jpg
[2021-04-21 16:37:39.940] ,-62.75,-15.60,.\2021_04_21_16_36_37\2021_04_21_16_37_40_689077.jpg
[2021-04-21 16:37:39.940] ,-62.75,-15.60,.\2021_04_21_16_36_37\2021_04_21_16_37_40_889571.jpg
[2021-04-21 16:37:40.939] ,-63.73,-15.80,.\2021_04_21_16_36_37\2021_04_21_16_37_41_090010.jpg
[2021-04-21 16:37:40.939] ,-63.73,-15.80,.\2021_04_21_16_36_37\2021_04_21_16_37_41_291466.jpg
[2021-04-21 16:37:40.939] ,-63.73,-15.80,.\2021_04_21_16_36_37\2021_04_21_16_37_41_492939.jpg
[2021-04-21 16:37:41.566] ,-65.17,-16.00,.\2021_04_21_16_36_37\2021_04_21_16_37_41_695385.jpg
[2021-04-21 16:37:41.566] ,-65.17,-16.00,.\2021_04_21_16_36_37\2021_04_21_16_37_41_896846.jpg
[2021-04-21 16:37:41.566] ,-65.17,-16.00,.\2021_04_21_16_36_37\2021_04_21_16_37_42_096313.jpg
[2021-04-21 16:37:42.222] ,-66.94,-16.20,.\2021_04_21_16_36_37\2021_04_21_16_37_42_296778.jpg
[2021-04-21 16:37:42.222] ,-66.94,-16.20,.\2021_04_21_16_36_37\2021_04_21_16_37_42_498239.jpg
[2021-04-21 16:37:42.222] ,-66.94,-16.20,.\2021_04_21_16_36_37\2021_04_21_16_37_42_697706.jpg
[2021-04-21 16:37:42.222] ,-66.94,-16.20,.\2021_04_21_16_36_37\2021_04_21_16_37_42_899568.jpg
[2021-04-21 16:37:42.222] ,-66.94,-16.20,.\2021_04_21_16_36_37\2021_04_21_16_37_43_100032.jpg
[2021-04-21 16:37:42.222] ,-66.94,-16.20,.\2021_04_21_16_36_37\2021_04_21_16_37_43_301497.jpg
[2021-04-21 16:37:42.222] ,-66.94,-16.20,.\2021_04_21_16_36_37\2021_04_21_16_37_43_503952.jpg
[2021-04-21 16:37:43.656] ,-66.59,-16.40,.\2021_04_21_16_36_37\2021_04_21_16_37_43_704418.jpg
[2021-04-21 16:37:43.656] ,-66.59,-16.40,.\2021_04_21_16_36_37\2021_04_21_16_37_43_904882.jpg
[2021-04-21 16:37:43.656] ,-66.59,-16.40,.\2021_04_21_16_36_37\2021_04_21_16_37_44_105345.jpg
[2021-04-21 16:37:43.656] ,-66.59,-16.40,.\2021_04_21_16_36_37\2021_04_21_16_37_44_305808.jpg
[2021-04-21 16:37:43.656] ,-66.59,-16.40,.\2021_04_21_16_36_37\2021_04_21_16_37_44_507272.jpg
[2021-04-21 16:37:44.704] ,-67.79,-16.60,.\2021_04_21_16_36_37\2021_04_21_16_37_44_708773.jpg
[2021-04-21 16:37:44.704] ,-67.79,-16.60,.\2021_04_21_16_36_37\2021_04_21_16_37_44_910179.jpg
[2021-04-21 16:37:44.704] ,-67.79,-16.60,.\2021_04_21_16_36_37\2021_04_21_16_37_45_111153.jpg
[2021-04-21 16:37:44.704] ,-67.79,-16.60,.\2021_04_21_16_36_37\2021_04_21_16_37_45_311616.jpg
[2021-04-21 16:37:45.463] ,-69.24,-17.00,.\2021_04_21_16_36_37\2021_04_21_16_37_45_515071.jpg
[2021-04-21 16:37:45.463] ,-69.24,-17.00,.\2021_04_21_16_36_37\2021_04_21_16_37_45_714538.jpg
[2021-04-21 16:37:45.463] ,-69.24,-17.00,.\2021_04_21_16_36_37\2021_04_21_16_37_45_916001.jpg
[2021-04-21 16:37:45.463] ,-69.24,-17.00,.\2021_04_21_16_36_37\2021_04_21_16_37_46_117492.jpg
[2021-04-21 16:37:46.282] ,-72.89,-17.20,.\2021_04_21_16_36_37\2021_04_21_16_37_46_318922.jpg
[2021-04-21 16:37:46.282] ,-72.89,-17.20,.\2021_04_21_16_36_37\2021_04_21_16_37_46_520384.jpg
[2021-04-21 16:37:46.282] ,-72.89,-17.20,.\2021_04_21_16_36_37\2021_04_21_16_37_46_720850.jpg
[2021-04-21 16:37:46.282] ,-72.89,-17.20,.\2021_04_21_16_36_37\2021_04_21_16_37_46_921315.jpg
[2021-04-21 16:37:46.282] ,-72.89,-17.20,.\2021_04_21_16_36_37\2021_04_21_16_37_47_121776.jpg
[2021-04-21 16:37:46.282] ,-72.89,-17.20,.\2021_04_21_16_36_37\2021_04_21_16_37_47_323269.jpg
[2021-04-21 16:37:47.420] ,-73.58,-17.40,.\2021_04_21_16_36_37\2021_04_21_16_37_47_523705.jpg
[2021-04-21 16:37:47.420] ,-73.58,-17.40,.\2021_04_21_16_36_37\2021_04_21_16_37_47_724166.jpg
[2021-04-21 16:37:47.420] ,-73.58,-17.40,.\2021_04_21_16_36_37\2021_04_21_16_37_47_925629.jpg
[2021-04-21 16:37:47.420] ,-73.58,-17.40,.\2021_04_21_16_36_37\2021_04_21_16_37_48_126092.jpg
[2021-04-21 16:37:47.420] ,-73.58,-17.40,.\2021_04_21_16_36_37\2021_04_21_16_37_48_328550.jpg
[2021-04-21 16:37:48.490] ,-75.28,-17.40,.\2021_04_21_16_36_37\2021_04_21_16_37_48_528556.jpg
[2021-04-21 16:37:48.490] ,-75.28,-17.40,.\2021_04_21_16_36_37\2021_04_21_16_37_48_734008.jpg
[2021-04-21 16:37:48.490] ,-75.28,-17.40,.\2021_04_21_16_36_37\2021_04_21_16_37_48_935470.jpg
[2021-04-21 16:37:48.490] ,-75.28,-17.40,.\2021_04_21_16_36_37\2021_04_21_16_37_49_135932.jpg
[2021-04-21 16:37:48.490] ,-75.28,-17.40,.\2021_04_21_16_36_37\2021_04_21_16_37_49_338428.jpg
[2021-04-21 16:37:49.485] ,-74.89,-17.40,.\2021_04_21_16_36_37\2021_04_21_16_37_49_538855.jpg
[2021-04-21 16:37:49.485] ,-74.89,-17.40,.\2021_04_21_16_36_37\2021_04_21_16_37_49_740319.jpg
[2021-04-21 16:37:49.485] ,-74.89,-17.40,.\2021_04_21_16_36_37\2021_04_21_16_37_49_939818.jpg
[2021-04-21 16:37:49.485] ,-74.89,-17.40,.\2021_04_21_16_36_37\2021_04_21_16_37_50_141246.jpg
[2021-04-21 16:37:49.485] ,-74.89,-17.40,.\2021_04_21_16_36_37\2021_04_21_16_37_50_342706.jpg
[2021-04-21 16:37:50.543] ,-74.12,-17.60,.\2021_04_21_16_36_37\2021_04_21_16_37_50_542402.jpg
[2021-04-21 16:37:50.543] ,-74.12,-17.60,.\2021_04_21_16_36_37\2021_04_21_16_37_50_743863.jpg
[2021-04-21 16:37:50.543] ,-74.12,-17.60,.\2021_04_21_16_36_37\2021_04_21_16_37_50_944326.jpg
[2021-04-21 16:37:50.543] ,-74.12,-17.60,.\2021_04_21_16_36_37\2021_04_21_16_37_51_145788.jpg
[2021-04-21 16:37:51.202] ,-74.80,-17.80,.\2021_04_21_16_36_37\2021_04_21_16_37_51_345254.jpg
[2021-04-21 16:37:51.202] ,-74.80,-17.80,.\2021_04_21_16_36_37\2021_04_21_16_37_51_547350.jpg
[2021-04-21 16:37:51.718] ,-76.17,-18.00,.\2021_04_21_16_36_37\2021_04_21_16_37_51_747814.jpg
[2021-04-21 16:37:51.718] ,-76.17,-18.00,.\2021_04_21_16_36_37\2021_04_21_16_37_51_949307.jpg
[2021-04-21 16:37:51.718] ,-76.17,-18.00,.\2021_04_21_16_36_37\2021_04_21_16_37_52_147745.jpg
[2021-04-21 16:37:51.718] ,-76.17,-18.00,.\2021_04_21_16_36_37\2021_04_21_16_37_52_349239.jpg
[2021-04-21 16:37:51.718] ,-76.17,-18.00,.\2021_04_21_16_36_37\2021_04_21_16_37_52_550216.jpg
[2021-04-21 16:37:51.718] ,-76.17,-18.00,.\2021_04_21_16_36_37\2021_04_21_16_37_52_751680.jpg
[2021-04-21 16:37:52.911] ,-78.25,-18.00,.\2021_04_21_16_36_37\2021_04_21_16_37_52_953107.jpg
[2021-04-21 16:37:52.911] ,-78.25,-18.00,.\2021_04_21_16_36_37\2021_04_21_16_37_53_154569.jpg
[2021-04-21 16:37:52.911] ,-78.25,-18.00,.\2021_04_21_16_36_37\2021_04_21_16_37_53_355069.jpg
[2021-04-21 16:37:53.520] ,-77.38,-18.20,.\2021_04_21_16_36_37\2021_04_21_16_37_53_555891.jpg
[2021-04-21 16:37:53.520] ,-77.38,-18.20,.\2021_04_21_16_36_37\2021_04_21_16_37_53_757352.jpg
[2021-04-21 16:37:53.520] ,-77.38,-18.20,.\2021_04_21_16_36_37\2021_04_21_16_37_53_957818.jpg
[2021-04-21 16:37:53.520] ,-77.38,-18.20,.\2021_04_21_16_36_37\2021_04_21_16_37_54_157284.jpg
[2021-04-21 16:37:54.299] ,-77.51,-18.20,.\2021_04_21_16_36_37\2021_04_21_16_37_54_358745.jpg
[2021-04-21 16:37:54.299] ,-77.51,-18.20,.\2021_04_21_16_36_37\2021_04_21_16_37_54_561783.jpg
[2021-04-21 16:37:54.299] ,-77.51,-18.20,.\2021_04_21_16_36_37\2021_04_21_16_37_54_761218.jpg
[2021-04-21 16:37:54.840] ,-77.44,-18.40,.\2021_04_21_16_36_37\2021_04_21_16_37_54_962712.jpg
[2021-04-21 16:37:54.840] ,-77.44,-18.40,.\2021_04_21_16_36_37\2021_04_21_16_37_55_163142.jpg
[2021-04-21 16:37:55.332] ,-78.67,-18.60,.\2021_04_21_16_36_37\2021_04_21_16_37_55_364604.jpg
[2021-04-21 16:37:55.429] ,-78.58,-18.40,.\2021_04_21_16_36_37\2021_04_21_16_37_55_565534.jpg
[2021-04-21 16:37:55.429] ,-78.58,-18.40,.\2021_04_21_16_36_37\2021_04_21_16_37_55_765998.jpg
[2021-04-21 16:37:55.429] ,-78.58,-18.40,.\2021_04_21_16_36_37\2021_04_21_16_37_55_966463.jpg
[2021-04-21 16:37:55.429] ,-78.58,-18.40,.\2021_04_21_16_36_37\2021_04_21_16_37_56_166927.jpg
[2021-04-21 16:37:55.429] ,-78.58,-18.40,.\2021_04_21_16_36_37\2021_04_21_16_37_56_368388.jpg
[2021-04-21 16:37:55.429] ,-78.58,-18.40,.\2021_04_21_16_36_37\2021_04_21_16_37_56_571264.jpg
[2021-04-21 16:37:56.720] ,-78.30,-18.60,.\2021_04_21_16_36_37\2021_04_21_16_37_56_770731.jpg
[2021-04-21 16:37:56.794] ,-78.33,-18.40,.\2021_04_21_16_36_37\2021_04_21_16_37_56_974189.jpg
[2021-04-21 16:37:56.794] ,-78.33,-18.40,.\2021_04_21_16_36_37\2021_04_21_16_37_57_174650.jpg
[2021-04-21 16:37:56.794] ,-78.33,-18.40,.\2021_04_21_16_36_37\2021_04_21_16_37_57_375115.jpg
[2021-04-21 16:37:56.794] ,-78.33,-18.40,.\2021_04_21_16_36_37\2021_04_21_16_37_57_575467.jpg
[2021-04-21 16:37:57.692] ,-78.33,-18.40,.\2021_04_21_16_36_37\2021_04_21_16_37_57_777924.jpg
[2021-04-21 16:37:57.692] ,-78.33,-18.40,.\2021_04_21_16_36_37\2021_04_21_16_37_57_979385.jpg
[2021-04-21 16:37:57.692] ,-78.33,-18.40,.\2021_04_21_16_36_37\2021_04_21_16_37_58_179848.jpg
[2021-04-21 16:37:58.236] ,-77.30,-18.60,.\2021_04_21_16_36_37\2021_04_21_16_37_58_382308.jpg
[2021-04-21 16:37:58.236] ,-77.30,-18.60,.\2021_04_21_16_36_37\2021_04_21_16_37_58_581774.jpg
[2021-04-21 16:37:58.754] ,-78.52,-18.80,.\2021_04_21_16_36_37\2021_04_21_16_37_58_782238.jpg
[2021-04-21 16:37:58.754] ,-78.52,-18.80,.\2021_04_21_16_36_37\2021_04_21_16_37_58_983700.jpg
[2021-04-21 16:37:58.754] ,-78.52,-18.80,.\2021_04_21_16_36_37\2021_04_21_16_37_59_184164.jpg
[2021-04-21 16:37:59.406] ,-80.08,-,.\2021_04_21_16_36_37\2021_04_21_16_37_59_385627.jpg
[2021-04-21 16:37:59.406] ,-80.08,-19.00,.\2021_04_21_16_36_37\2021_04_21_16_37_59_587087.jpg
[2021-04-21 16:37:59.406] ,-80.08,-19.00,.\2021_04_21_16_36_37\2021_04_21_16_37_59_789584.jpg
[2021-04-21 16:37:59.406] ,-80.08,-19.00,.\2021_04_21_16_36_37\2021_04_21_16_37_59_990010.jpg
[2021-04-21 16:38:00.100] ,-80.45,-19.20,.\2021_04_21_16_36_37\2021_04_21_16_38_00_191472.jpg
[2021-04-21 16:38:00.100] ,-80.45,-19.20,.\2021_04_21_16_36_37\2021_04_21_16_38_00_391934.jpg
[2021-04-21 16:38:00.100] ,-80.45,-19.20,.\2021_04_21_16_36_37\2021_04_21_16_38_00_591777.jpg
[2021-04-21 16:38:00.100] ,-80.45,-19.20,.\2021_04_21_16_36_37\2021_04_21_16_38_00_793240.jpg
[2021-04-21 16:38:00.911] ,-80.83,-19.40,.\2021_04_21_16_36_37\2021_04_21_16_38_00_995696.jpg
[2021-04-21 16:38:00.911] ,-80.83,-19.40,.\2021_04_21_16_36_37\2021_04_21_16_38_01_196162.jpg
[2021-04-21 16:38:00.911] ,-80.83,-19.40,.\2021_04_21_16_36_37\2021_04_21_16_38_01_396657.jpg
[2021-04-21 16:38:00.911] ,-80.83,-19.40,.\2021_04_21_16_36_37\2021_04_21_16_38_01_596187.jpg
[2021-04-21 16:38:01.727] ,-82.40,-19.40,.\2021_04_21_16_36_37\2021_04_21_16_38_01_796556.jpg
[2021-04-21 16:38:01.727] ,-82.40,-19.40,.\2021_04_21_16_36_37\2021_04_21_16_38_01_998018.jpg
[2021-04-21 16:38:01.727] ,-82.40,-19.40,.\2021_04_21_16_36_37\2021_04_21_16_38_02_200477.jpg
[2021-04-21 16:38:01.727] ,-82.40,-19.40,.\2021_04_21_16_36_37\2021_04_21_16_38_02_399942.jpg
[2021-04-21 16:38:01.727] ,-82.40,-19.40,.\2021_04_21_16_36_37\2021_04_21_16_38_02_600407.jpg
[2021-04-21 16:38:01.727] ,-82.40,-19.40,.\2021_04_21_16_36_37\2021_04_21_16_38_02_800871.jpg
[2021-04-21 16:38:02.878] ,-81.33,-19.60,.\2021_04_21_16_36_37\2021_04_21_16_38_03_001335.jpg
[2021-04-21 16:38:03.050] ,-81.77,-19.40,.\2021_04_21_16_36_37\2021_04_21_16_38_03_202797.jpg
[2021-04-21 16:38:03.050] ,-81.77,-19.40,.\2021_04_21_16_36_37\2021_04_21_16_38_03_404261.jpg
[2021-04-21 16:38:03.050] ,-81.77,-19.40,.\2021_04_21_16_36_37\2021_04_21_16_38_03_605206.jpg
[2021-04-21 16:38:03.050] ,-81.77,-19.40,.\2021_04_21_16_36_37\2021_04_21_16_38_03_807664.jpg
[2021-04-21 16:38:03.824] ,-80.84,-19.60,.\2021_04_21_16_36_37\2021_04_21_16_38_04_011121.jpg
[2021-04-21 16:38:03.824] ,-80.84,-19.60,.\2021_04_21_16_36_37\2021_04_21_16_38_04_213088.jpg
[2021-04-21 16:38:04.283] ,-81.96,-19.80,.\2021_04_21_16_36_37\2021_04_21_16_38_04_414550.jpg
[2021-04-21 16:38:04.283] ,-81.96,-19.80,.\2021_04_21_16_36_37\2021_04_21_16_38_04_615270.jpg
[2021-04-21 16:38:04.283] ,-81.96,-19.80,.\2021_04_21_16_36_37\2021_04_21_16_38_04_815732.jpg
[2021-04-21 16:38:04.283] ,-81.96,-19.80,.\2021_04_21_16_36_37\2021_04_21_16_38_05_017193.jpg
[2021-04-21 16:38:04.283] ,-81.96,-19.80,.\2021_04_21_16_36_37\2021_04_21_16_38_05_218655.jpg
[2021-04-21 16:38:05.242] ,-83.39,-20.00,.\2021_04_21_16_36_37\2021_04_21_16_38_05_419119.jpg
[2021-04-21 16:38:05.242] ,-83.39,-20.00,.\2021_04_21_16_36_37\2021_04_21_16_38_05_619198.jpg
[2021-04-21 16:38:05.242] ,-83.39,-20.00,.\2021_04_21_16_36_37\2021_04_21_16_38_05_821624.jpg
[2021-04-21 16:38:05.938] ,-84.50,-20.20,.\2021_04_21_16_36_37\2021_04_21_16_38_06_021124.jpg
[2021-04-21 16:38:05.938] ,-84.50,-20.20,.\2021_04_21_16_36_37\2021_04_21_16_38_06_222584.jpg
[2021-04-21 16:38:05.938] ,-84.50,-20.20,.\2021_04_21_16_36_37\2021_04_21_16_38_06_422057.jpg
[2021-04-21 16:38:05.938] ,-84.50,-20.20,.\2021_04_21_16_36_37\2021_04_21_16_38_06_623513.jpg
[2021-04-21 16:38:06.647] ,-85.09,-20.40,.\2021_04_21_16_36_37\2021_04_21_16_38_06_824980.jpg
[2021-04-21 16:38:06.647] ,-85.09,-20.40,.\2021_04_21_16_36_37\2021_04_21_16_38_07_026403.jpg
[2021-04-21 16:38:07.069] ,-86.69,-20.60,.\2021_04_21_16_36_37\2021_04_21_16_38_07_226870.jpg
[2021-04-21 16:38:07.069] ,-86.69,-20.60,.\2021_04_21_16_36_37\2021_04_21_16_38_07_431323.jpg
[2021-04-21 16:38:07.573] ,-88.23,-20.80,.\2021_04_21_16_36_37\2021_04_21_16_38_07_631582.jpg
[2021-04-21 16:38:07.661] ,-88.08,-20.60,.\2021_04_21_16_36_37\2021_04_21_16_38_07_833045.jpg
[2021-04-21 16:38:07.661] ,-88.08,-20.60,.\2021_04_21_16_36_37\2021_04_21_16_38_08_034541.jpg
[2021-04-21 16:38:07.661] ,-88.08,-20.60,.\2021_04_21_16_36_37\2021_04_21_16_38_08_233975.jpg
[2021-04-21 16:38:07.661] ,-88.08,-20.60,.\2021_04_21_16_36_37\2021_04_21_16_38_08_436431.jpg
[2021-04-21 16:38:07.661] ,-88.08,-20.60,.\2021_04_21_16_36_37\2021_04_21_16_38_08_636895.jpg
[2021-04-21 16:38:08.823] ,-88.01,-20.80,.\2021_04_21_16_36_37\2021_04_21_16_38_08_837361.jpg
[2021-04-21 16:38:08.937] ,-87.80,-20.60,.\2021_04_21_16_36_37\2021_04_21_16_38_09_038821.jpg
[2021-04-21 16:38:08.937] ,-87.80,-20.60,.\2021_04_21_16_36_37\2021_04_21_16_38_09_240315.jpg
[2021-04-21 16:38:08.937] ,-87.80,-20.60,.\2021_04_21_16_36_37\2021_04_21_16_38_09_440777.jpg
[2021-04-21 16:38:08.937] ,-87.80,-20.60,.\2021_04_21_16_36_37\2021_04_21_16_38_09_641258.jpg
[2021-04-21 16:38:09.756] ,-87.31,-20.80,.\2021_04_21_16_36_37\2021_04_21_16_38_09_842720.jpg
[2021-04-21 16:38:09.756] ,-87.31,-20.80,.\2021_04_21_16_36_37\2021_04_21_16_38_10_043184.jpg
[2021-04-21 16:38:09.756] ,-87.31,-20.80,.\2021_04_21_16_36_37\2021_04_21_16_38_10_244677.jpg
[2021-04-21 16:38:09.756] ,-87.31,-20.80,.\2021_04_21_16_36_37\2021_04_21_16_38_10_445109.jpg
[2021-04-21 16:38:10.648] ,-88.06,-21.00,.\2021_04_21_16_36_37\2021_04_21_16_38_10_650317.jpg
[2021-04-21 16:38:10.648] ,-88.06,-21.00,.\2021_04_21_16_36_37\2021_04_21_16_38_10_851813.jpg
[2021-04-21 16:38:10.648] ,-88.06,-21.00,.\2021_04_21_16_36_37\2021_04_21_16_38_11_053271.jpg
[2021-04-21 16:38:11.174] ,-89.44,-21.20,.\2021_04_21_16_36_37\2021_04_21_16_38_11_254700.jpg
[2021-04-21 16:38:11.363] ,-89.57,-21.20,.\2021_04_21_16_36_37\2021_04_21_16_38_11_456162.jpg
[2021-04-21 16:38:11.363] ,-89.57,-21.20,.\2021_04_21_16_36_37\2021_04_21_16_38_11_657247.jpg
[2021-04-21 16:38:11.363] ,-89.57,-21.20,.\2021_04_21_16_36_37\2021_04_21_16_38_11_858734.jpg
[2021-04-21 16:38:11.363] ,-89.57,-21.20,.\2021_04_21_16_36_37\2021_04_21_16_38_12_058642.jpg
[2021-04-21 16:38:11.363] ,-89.57,-21.20,.\2021_04_21_16_36_37\2021_04_21_16_38_12_259083.jpg
[2021-04-21 16:38:12.415] ,-89.73,-21.40,.\2021_04_21_16_36_37\2021_04_21_16_38_12_459533.jpg
[2021-04-21 16:38:12.482] ,-89.99,-21.20,.\2021_04_21_16_36_37\2021_04_21_16_38_12_659999.jpg
[2021-04-21 16:38:12.482] ,-89.99,-21.20,.\2021_04_21_16_36_37\2021_04_21_16_38_12_860462.jpg
[2021-04-21 16:38:12.482] ,-89.99,-21.20,.\2021_04_21_16_36_37\2021_04_21_16_38_13_062921.jpg
[2021-04-21 16:38:13.087] ,-89.67,-21.40,.\2021_04_21_16_36_37\2021_04_21_16_38_13_263386.jpg
[2021-04-21 16:38:13.087] ,-89.67,-21.40,.\2021_04_21_16_36_37\2021_04_21_16_38_13_464848.jpg
[2021-04-21 16:38:13.087] ,-89.67,-21.40,.\2021_04_21_16_36_37\2021_04_21_16_38_13_665972.jpg
[2021-04-21 16:38:13.087] ,-89.67,-21.40,.\2021_04_21_16_36_37\2021_04_21_16_38_13_867432.jpg
[2021-04-21 16:38:14.046] ,-90.79,-21.60,.\2021_04_21_16_36_37\2021_04_21_16_38_14_068895.jpg
[2021-04-21 16:38:14.046] ,-90.79,-21.60,.\2021_04_21_16_36_37\2021_04_21_16_38_14_270354.jpg
[2021-04-21 16:38:14.046] ,-90.79,-21.60,.\2021_04_21_16_36_37\2021_04_21_16_38_14_470818.jpg
[2021-04-21 16:38:14.046] ,-90.79,-21.60,.\2021_04_21_16_36_37\2021_04_21_16_38_14_671283.jpg
[2021-04-21 16:38:14.046] ,-90.79,-21.60,.\2021_04_21_16_36_37\2021_04_21_16_38_14_871747.jpg
[2021-04-21 16:38:14.943] ,-92.07,-21.80,.\2021_04_21_16_36_37\2021_04_21_16_38_15_072212.jpg
[2021-04-21 16:38:14.943] ,-92.07,-21.80,.\2021_04_21_16_36_37\2021_04_21_16_38_15_274669.jpg
[2021-04-21 16:38:15.357] ,-92.52,-22.00,.\2021_04_21_16_36_37\2021_04_21_16_38_15_475134.jpg
[2021-04-21 16:38:15.357] ,-92.52,-22.00,.\2021_04_21_16_36_37\2021_04_21_16_38_15_676595.jpg
[2021-04-21 16:38:15.759] ,-93.05,-22.20,.\2021_04_21_16_36_37\2021_04_21_16_38_15_881051.jpg
[2021-04-21 16:38:15.759] ,-93.05,-22.20,.\2021_04_21_16_36_37\2021_04_21_16_38_16_081515.jpg
[2021-04-21 16:38:16.246] ,-94.37,-22.40,.\2021_04_21_16_36_37\2021_04_21_16_38_16_282009.jpg
[2021-04-21 16:38:16.246] ,-94.37,-22.40,.\2021_04_21_16_36_37\2021_04_21_16_38_16_486431.jpg
[2021-04-21 16:38:16.246] ,-94.37,-22.40,.\2021_04_21_16_36_37\2021_04_21_16_38_16_687892.jpg
[2021-04-21 16:38:16.246] ,-94.37,-22.40,.\2021_04_21_16_36_37\2021_04_21_16_38_16_889385.jpg
[2021-04-21 16:38:16.246] ,-94.37,-22.40,.\2021_04_21_16_36_37\2021_04_21_16_38_17_088854.jpg
[2021-04-21 16:38:16.246] ,-94.37,-22.40,.\2021_04_21_16_36_37\2021_04_21_16_38_17_289284.jpg
[2021-04-21 16:38:16.246] ,-94.37,-22.40,.\2021_04_21_16_36_37\2021_04_21_16_38_17_490746.jpg
[2021-04-21 16:38:17.540] ,-95.44,-22.60,.\2021_04_21_16_36_37\2021_04_21_16_38_17_691210.jpg
[2021-04-21 16:38:17.540] ,-95.44,-22.60,.\2021_04_21_16_36_37\2021_04_21_16_38_17_893668.jpg
[2021-04-21 16:38:17.540] ,-95.44,-22.60,.\2021_04_21_16_36_37\2021_04_21_16_38_18_094209.jpg
[2021-04-21 16:38:17.540] ,-95.44,-22.60,.\2021_04_21_16_36_37\2021_04_21_16_38_18_294672.jpg
[2021-04-21 16:38:17.540] ,-95.44,-22.60,.\2021_04_21_16_36_37\2021_04_21_16_38_18_496135.jpg
[2021-04-21 16:38:18.548] ,-97.71,-22.80,.\2021_04_21_16_36_37\2021_04_21_16_38_18_696598.jpg
[2021-04-21 16:38:18.548] ,-97.71,-22.80,.\2021_04_21_16_36_37\2021_04_21_16_38_18_897062.jpg
[2021-04-21 16:38:18.548] ,-97.71,-22.80,.\2021_04_21_16_36_37\2021_04_21_16_38_19_097527.jpg
[2021-04-21 16:38:18.548] ,-97.71,-22.80,.\2021_04_21_16_36_37\2021_04_21_16_38_19_299985.jpg
[2021-04-21 16:38:18.548] ,-97.71,-22.80,.\2021_04_21_16_36_37\2021_04_21_16_38_19_501449.jpg
[2021-04-21 16:38:19.560] ,-98.64,-23.00,.\2021_04_21_16_36_37\2021_04_21_16_38_19_702944.jpg
[2021-04-21 16:38:19.560] ,-98.64,-23.00,.\2021_04_21_16_36_37\2021_04_21_16_38_19_901377.jpg
[2021-04-21 16:38:20.040] ,-100.60,-23.20,.\2021_04_21_16_36_37\2021_04_21_16_38_20_107827.jpg
[2021-04-21 16:38:20.040] ,-100.60,-23.20,.\2021_04_21_16_36_37\2021_04_21_16_38_20_304300.jpg
[2021-04-21 16:38:20.040] ,-100.60,-23.20,.\2021_04_21_16_36_37\2021_04_21_16_38_20_506760.jpg
[2021-04-21 16:38:20.040] ,-100.60,-23.20,.\2021_04_21_16_36_37\2021_04_21_16_38_20_707225.jpg
[2021-04-21 16:38:20.879] ,-102.23,-23.40,.\2021_04_21_16_36_37\2021_04_21_16_38_20_909683.jpg
[2021-04-21 16:38:20.879] ,-102.23,-23.40,.\2021_04_21_16_36_37\2021_04_21_16_38_21_110146.jpg
[2021-04-21 16:38:20.879] ,-102.23,-23.40,.\2021_04_21_16_36_37\2021_04_21_16_38_21_310610.jpg
[2021-04-21 16:38:20.879] ,-102.23,-23.40,.\2021_04_21_16_36_37\2021_04_21_16_38_21_511075.jpg
[2021-04-21 16:38:21.707] ,-103.23,-23.80,.\2021_04_21_16_36_37\2021_04_21_16_38_21_714561.jpg
[2021-04-21 16:38:21.707] ,-103.23,-23.80,.\2021_04_21_16_36_37\2021_04_21_16_38_21_913998.jpg
[2021-04-21 16:38:21.707] ,-103.23,-23.80,.\2021_04_21_16_36_37\2021_04_21_16_38_22_115490.jpg
[2021-04-21 16:38:22.318] ,-105.55,-24.00,.\2021_04_21_16_36_37\2021_04_21_16_38_22_315955.jpg
[2021-04-21 16:38:22.318] ,-105.55,-24.00,.\2021_04_21_16_36_37\2021_04_21_16_38_22_518382.jpg
[2021-04-21 16:38:22.633] ,-107.22,-24.40,.\2021_04_21_16_36_37\2021_04_21_16_38_22_725829.jpg
[2021-04-21 16:38:22.633] ,-107.22,-24.40,.\2021_04_21_16_36_37\2021_04_21_16_38_22_918313.jpg
[2021-04-21 16:38:22.633] ,-107.22,-24.40,.\2021_04_21_16_36_37\2021_04_21_16_38_23_119773.jpg
[2021-04-21 16:38:22.633] ,-107.22,-24.40,.\2021_04_21_16_36_37\2021_04_21_16_38_23_319278.jpg
[2021-04-21 16:38:22.633] ,-107.22,-24.40,.\2021_04_21_16_36_37\2021_04_21_16_38_23_519706.jpg
[2021-04-21 16:38:22.633] ,-107.22,-24.40,.\2021_04_21_16_36_37\2021_04_21_16_38_23_721166.jpg
[2021-04-21 16:38:22.633] ,-107.22,-24.40,.\2021_04_21_16_36_37\2021_04_21_16_38_23_922628.jpg
[2021-04-21 16:38:22.633] ,-107.22,-24.40,.\2021_04_21_16_36_37\2021_04_21_16_38_24_122617.jpg
[2021-04-21 16:38:22.633] ,-107.22,-24.40,.\2021_04_21_16_36_37\2021_04_21_16_38_24_323080.jpg
[2021-04-21 16:38:22.633] ,-107.22,-24.40,.\2021_04_21_16_36_37\2021_04_21_16_38_24_524541.jpg
[2021-04-21 16:38:22.633] ,-107.22,-24.40,.\2021_04_21_16_36_37\2021_04_21_16_38_24_725184.jpg
[2021-04-21 16:38:22.633] ,-107.22,-24.40,.\2021_04_21_16_36_37\2021_04_21_16_38_24_927643.jpg
[2021-04-21 16:38:22.633] ,-107.22,-24.40,.\2021_04_21_16_36_37\2021_04_21_16_38_25_128105.jpg
