2021-04-08 18:13:03.005,0.64,g
2021-04-08 18:13:03.350,0.65,g
2021-04-08 18:13:03.703,0.62,g
2021-04-08 18:13:04.770,0.70,g
2021-04-08 18:13:05.458,0.79,g
2021-04-08 18:13:05.674,0.65,g
2021-04-08 18:13:05.773,0.62,g
2021-04-08 18:13:05.958,0.68,g
2021-04-08 18:13:06.519,0.76,g
2021-04-08 18:13:06.673,0.54,g
2021-04-08 18:13:06.991,0.67,g
2021-04-08 18:13:07.408,2.19,g
2021-04-08 18:13:07.724,11.47,g
2021-04-08 18:13:08.306,38.59,g
2021-04-08 18:13:08.439,38.62,g
2021-04-08 18:13:08.573,44.98,g
2021-04-08 18:13:09.026,21.09,g
2021-04-08 18:13:09.322,22.07,g
2021-04-08 18:13:09.796,1.82,g
2021-04-08 18:13:10.096,6.07,g
2021-04-08 18:13:10.165,6.36,g
2021-04-08 18:13:10.560,13.58,g
2021-04-08 18:13:10.745,27.06,g
2021-04-08 18:13:10.855,36.53,g
2021-04-08 18:13:11.254,49.18,g
2021-04-08 18:13:11.655,61.21,g
2021-04-08 18:13:12.189,63.10,g
2021-04-08 18:13:12.506,68.34,g
2021-04-08 18:13:12.881,49.93,g
2021-04-08 18:13:13.090,55.97,g
2021-04-08 18:13:13.569,75.04,g
2021-04-08 18:13:13.776,78.23,g
2021-04-08 18:13:14.155,89.20,g
2021-04-08 18:13:14.536,99.83,g
2021-04-08 18:13:14.767,103.59,g
2021-04-08 18:13:15.346,115.66,g
2021-04-08 18:13:15.875,121.17,g
2021-04-08 18:13:16.075,130.16,g
2021-04-08 18:13:16.237,135.55,g
2021-04-08 18:13:16.514,165.79,g
2021-04-08 18:13:17.433,161.24,g
2021-04-08 18:13:17.656,179.43,g
2021-04-08 18:13:18.081,129.88,g
2021-04-08 18:13:18.621,172.81,g
2021-04-08 18:13:19.037,194.27,g
2021-04-08 18:13:19.707,199.94,g
2021-04-08 18:13:20.107,223.52,g
2021-04-08 18:13:20.438,246.56,g
2021-04-08 18:13:20.755,244.52,g
2021-04-08 18:13:21.173,264.73,g
2021-04-08 18:13:21.424,278.02,g
2021-04-08 18:13:21.506,280.57,g
2021-04-08 18:13:21.994,254.88,g
2021-04-08 18:13:22.842,263.20,g
2021-04-08 18:13:23.011,261.88,g
2021-04-08 18:13:23.771,285.63,g
2021-04-08 18:13:24.237,309.32,g
2021-04-08 18:13:24.545,335.95,g
2021-04-08 18:13:24.999,360.71,g
2021-04-08 18:13:25.289,360.20,g
2021-04-08 18:13:25.501,402.90,g
2021-04-08 18:13:25.801,427.55,g
2021-04-08 18:13:26.164,453.26,g
2021-04-08 18:13:26.922,436.40,g
2021-04-08 18:13:27.438,474.73,g
2021-04-08 18:13:27.738,499.05,g
2021-04-08 18:13:28.088,503.74,g
2021-04-08 18:13:28.686,514.47,g
2021-04-08 18:13:29.510,526.30,g
2021-04-08 18:13:29.926,517.25,g
2021-04-08 18:13:30.302,539.06,g
2021-04-08 18:13:31.117,557.58,g
2021-04-08 18:13:31.844,572.79,g
2021-04-08 18:13:32.244,584.74,g
2021-04-08 18:13:32.430,555.39,g
2021-04-08 18:13:33.379,537.82,g
2021-04-08 18:13:34.728,574.41,g
2021-04-08 18:13:35.030,608.06,g
2021-04-08 18:13:35.370,548.51,g
2021-04-08 18:13:35.921,572.11,g
2021-04-08 18:13:36.322,641.37,g
2021-04-08 18:13:37.422,629.21,g
2021-04-08 18:13:38.271,647.62,g
2021-04-08 18:13:38.842,686.85,g
2021-04-08 18:13:39.876,681.24,g
2021-04-08 18:13:40.376,732.33,g
2021-04-08 18:13:40.862,684.41,g
2021-04-08 18:13:41.338,730.46,g
2021-04-08 18:13:42.295,731.03,g
2021-04-08 18:13:43.245,756.96,g
2021-04-08 18:13:44.231,768.62,g
2021-04-08 18:13:44.773,806.73,g
2021-04-08 18:13:45.557,825.75,g
2021-04-08 18:13:46.158,802.41,g
2021-04-08 18:13:46.939,808.15,g
2021-04-08 18:13:47.754,845.03,g
2021-04-08 18:13:48.593,868.30,g
2021-04-08 18:13:49.828,869.77,g
2021-04-08 18:13:50.517,892.47,g
2021-04-08 18:13:51.039,915.20,g
2021-04-08 18:13:51.651,936.84,g
2021-04-08 18:13:52.221,926.38,g
2021-04-08 18:13:53.092,930.11,g
2021-04-08 18:13:53.754,967.90,g
2021-04-08 18:13:54.336,988.21,g
2021-04-08 18:13:55.357,987.70,g
2021-04-08 18:13:56.683,981.95,g
2021-04-08 18:13:57.184,1031.28,g
2021-04-08 18:13:57.972,934.89,g
2021-04-08 18:13:59.087,969.57,g
2021-04-08 18:13:59.667,1031.48,g
2021-04-08 18:14:00.722,1050.65,g
2021-04-08 18:14:01.470,1085.55,g
2021-04-08 18:14:02.054,1086.07,g
2021-04-08 18:14:02.640,1105.34,g
2021-04-08 18:14:03.025,1157.67,g
2021-04-08 18:14:03.422,1189.19,g
2021-04-08 18:14:04.111,1167.58,g
2021-04-08 18:14:05.044,1137.88,g
2021-04-08 18:14:05.869,1164.12,g
2021-04-08 18:14:06.381,1203.41,g
2021-04-08 18:14:07.484,1174.03,g
2021-04-08 18:14:08.770,1177.57,g
2021-04-08 18:14:09.655,1204.00,g
2021-04-08 18:14:10.673,1183.87,g
2021-04-08 18:14:11.455,1218.61,g
2021-04-08 18:14:12.328,1240.73,g
2021-04-08 18:14:13.446,1234.90,g
2021-04-08 18:14:14.347,1243.60,g
2021-04-08 18:14:15.913,1248.92,g
2021-04-08 18:14:16.923,1263.36,g
2021-04-08 18:14:17.670,1299.21,g
2021-04-08 18:14:18.840,1286.46,g
2021-04-08 18:14:19.826,1295.81,g
2021-04-08 18:14:20.304,1306.50,g
2021-04-08 18:14:21.258,1330.76,g
2021-04-08 18:14:22.118,1338.71,g
2021-04-08 18:14:22.911,1353.07,g
2021-04-08 18:14:23.737,1342.23,g
2021-04-08 18:14:24.439,1371.41,g
2021-04-08 18:14:25.105,1384.35,g
2021-04-08 18:14:25.286,1366.24,g
2021-04-08 18:14:25.956,1348.86,g
2021-04-08 18:14:26.719,1347.96,g
2021-04-08 18:14:27.573,1363.64,g
2021-04-08 18:14:28.891,1374.17,g
2021-04-08 18:14:30.073,1371.48,g
2021-04-08 18:14:30.477,1411.64,g
2021-04-08 18:14:30.572,1404.69,g
2021-04-08 18:14:31.247,1380.50,g
2021-04-08 18:14:31.811,1387.33,g
2021-04-08 18:14:32.383,1318.87,g
2021-04-08 18:14:34.288,1355.58,g
2021-04-08 18:14:34.957,1411.58,g
2021-04-08 18:14:35.505,1465.76,g
2021-04-08 18:14:36.806,1436.93,g
2021-04-08 18:14:37.638,1444.73,g
2021-04-08 18:14:38.306,1461.88,g
2021-04-08 18:14:39.638,1451.27,g
2021-04-08 18:14:41.046,1453.02,g
2021-04-08 18:14:41.851,1457.04,g
2021-04-08 18:14:42.534,1516.94,g
2021-04-08 18:14:43.374,1527.19,g
2021-04-08 18:14:43.706,1564.00,g
2021-04-08 18:14:44.909,1540.78,g
2021-04-08 18:14:45.241,1593.56,g
2021-04-08 18:14:45.939,1518.27,g
2021-04-08 18:14:46.396,1538.94,g
2021-04-08 18:14:46.912,1583.76,g
2021-04-08 18:14:47.270,1614.83,g
2021-04-08 18:14:48.246,1477.64,g
2021-04-08 18:14:49.564,1488.99,g
2021-04-08 18:14:50.319,1533.92,g
2021-04-08 18:14:50.835,1555.27,g
2021-04-08 18:14:51.907,1583.60,g
2021-04-08 18:14:52.555,1614.48,g
2021-04-08 18:14:52.893,1673.29,g
2021-04-08 18:14:54.073,1619.07,g
2021-04-08 18:14:54.961,1603.87,g
2021-04-08 18:14:55.331,1645.29,g
2021-04-08 18:14:56.449,1631.08,g
2021-04-08 18:14:56.849,1700.66,g
2021-04-08 18:14:57.350,1707.31,g
2021-04-08 18:14:57.839,1734.78,g
2021-04-08 18:14:58.407,1723.58,g
2021-04-08 18:14:58.970,1748.72,g
2021-04-08 18:14:59.408,1794.48,g
2021-04-08 18:15:00.209,1764.03,g
2021-04-08 18:15:00.903,1773.74,g
2021-04-08 18:15:01.333,1805.48,g
2021-04-08 18:15:01.812,1820.04,g
2021-04-08 18:15:02.644,1828.52,g
2021-04-08 18:15:03.576,1820.55,g
2021-04-08 18:15:04.432,1840.46,g
2021-04-08 18:15:05.265,1852.74,g
2021-04-08 18:15:05.951,1901.75,g
2021-04-08 18:15:06.453,1956.71,g
2021-04-08 18:15:07.103,1958.39,g
2021-04-08 18:15:07.878,1956.24,g
2021-04-08 18:15:08.300,1995.89,g
2021-04-08 18:15:09.319,1993.17,g
2021-04-08 18:15:10.434,1991.81,g
2021-04-08 18:15:11.418,2045.50,g
2021-04-08 18:15:12.521,2052.06,g
2021-04-08 18:15:13.381,2122.28,g
2021-04-08 18:15:16.756,2074.22,g
2021-04-08 18:15:17.384,2105.38,g
2021-04-08 18:15:17.956,2180.92,g
2021-04-08 18:15:18.906,2225.81,g
